<svg xmlns="http://www.w3.org/2000/svg"  viewBox="0 0 18261 4826" shape-rendering="geometricPrecision" text-rendering="geometricPrecision" image-rendering="optimizeQuality" fill-rule="evenodd" clip-rule="evenodd">
    <path d="M1138 0c407 0 763 213 965 534-231-230-661-319-1117-198C453 477 56 857 5 1242c-3-35-5-69-5-104C0 509 509 0 1138 0zm1133 1034c3 34 5 69 5 104 0 628-510 1138-1138 1138-407 0-764-214-965-534 230 230 660 319 1117 198 533-141 930-522 981-906z" fill="#0074aa"/>
    <path d="M2994 1143h533l784 2783 704-2783h391l702 2783 781-2783h533L6331 4754h-474l-649-2696-654 2696h-467L2994 1143zm5129 3611h-523V1143h539l1773 2733-25-2733h516v3611h-501L8089 1940l34 2814zm3074-1822c0 188 31 366 94 534s153 313 271 435c123 130 266 229 428 300 162 72 328 107 496 107 373 0 686-133 937-398s377-595 377-988c0-167-31-327-91-478s-148-291-264-418c-137-147-283-255-440-326-156-70-329-105-519-105-170 0-333 32-486 96-154 64-290 158-409 280-124 128-220 276-290 445-69 168-104 340-104 516zm-546-5c0-253 48-493 144-720 96-226 236-430 421-612 176-172 370-303 584-391 215-89 445-133 691-133 252 0 487 44 703 133 216 88 413 220 591 396 184 180 322 381 414 605 92 223 139 464 139 722 0 255-40 492-119 707-79 216-198 410-357 582-187 202-396 354-626 456-231 102-481 154-750 154-272 0-521-52-750-156-229-105-435-259-616-464-154-170-271-364-350-582-79-216-119-449-119-697zm5375 5h2235c-25 564-208 1020-549 1369-340 350-772 525-1294 525-271 0-521-52-750-156-229-105-434-259-616-464-154-170-271-364-350-582-79-216-119-449-119-697 0-253 48-493 144-720 96-226 236-430 421-612 176-176 371-307 588-393 217-87 457-131 722-131 365 0 685 86 961 257 275 171 483 415 623 730h-645c-119-154-261-269-426-347s-350-116-553-116c-170 0-332 32-486 96s-290 158-409 280c-124 128-220 276-290 445-69 168-104 340-104 516 0 188 31 366 94 534s153 313 271 435c123 130 266 229 428 300 163 72 328 107 496 107 275 0 517-73 727-219s383-362 518-648h-1637v-509z" fill="#c62329" fill-rule="nonzero"/>
    <path d="M944 1146h1029c-11-260-96-470-253-631-69-71-145-126-230-166-153-14-321-1-493 45-245 65-459 184-618 331-17 33-32 67-45 102-36 100-55 207-55 321 0 117 22 227 67 331 44 105 108 199 194 283 69 69 145 123 229 163 158 17 332 4 510-43 223-59 420-163 573-292 7-14 14-28 20-42h-297c-55 71-120 124-196 160s-161 54-255 54c-78 0-152-15-223-45s-134-73-189-129c-57-59-101-127-133-205-32-77-48-156-48-237 0-87 14-169 43-246s71-145 125-201c57-59 122-105 197-138s151-49 228-49c127 0 238 33 335 101 97 67 176 167 239 298H944v235z" fill="#bc0a29"/>
</svg>